.............
----------------------------------------------------------------------
Ran 13 tests in 0.001s

OK
Name               Stmts   Miss Branch BrPart  Cover   Missing
--------------------------------------------------------------
Diplomacy.py          73      1     50      1    98%   101, 97->101
TestDiplomacy.py      59      0      2      1    98%   118->exit
--------------------------------------------------------------
TOTAL                132      1     52      2    98%
