Name               Stmts   Miss  Cover
--------------------------------------
Diplomacy.py          67      1    99%
TestDiplomacy.py      26      0   100%
--------------------------------------
TOTAL                 93      1    99%
